,iter,node,value
0,0,N7452,6.4
1,0,N310,5.81
2,1,N2033,4.75
3,1,N310,7.23
4,2,N8326,11.5
5,2,N2033,13.79
6,2,N310,16.03
7,3,N4997,4.75
8,3,N7452,9.5
9,3,N310,20.68
10,4,N3295,2.0
11,4,N4997,5.12
12,4,N7452,10.95
13,4,N310,22.85
14,5,N3295,2.0
15,5,N4997,5.56
16,5,N7452,12.32
17,5,N310,23.84
18,6,N3295,2.0
19,6,N4997,5.53
20,6,N7452,12.69
21,6,N310,24.38
22,7,N3295,2.0
23,7,N4997,5.77
24,7,N7452,13.26
25,7,N310,24.7
26,8,N3295,2.0
27,8,N4997,5.88
28,8,N7452,13.83
29,8,N310,24.86
30,9,N3295,2.0
31,9,N4997,6.19
32,9,N7452,13.97
33,9,N310,24.84
34,10,N3295,2.0
35,10,N4997,6.35
36,10,N7452,14.46
37,10,N310,25.03
38,11,N3295,2.0
39,11,N4997,6.17
40,11,N7452,14.57
41,11,N310,24.98
42,12,N3295,2.0
43,12,N4997,5.84
44,12,N7452,14.45
45,12,N310,25.0
46,13,N3295,2.0
47,13,N4997,6.17
48,13,N7452,14.46
49,13,N310,25.01
50,14,N3295,2.0
51,14,N4997,6.33
52,14,N7452,14.7
53,14,N310,24.97
54,15,N3295,2.0
55,15,N4997,6.42
56,15,N7452,14.98
57,15,N310,25.0
58,16,N3295,2.0
59,16,N4997,5.96
60,16,N7452,14.46
61,16,N310,24.91
62,17,N3295,2.0
63,17,N4997,5.73
64,17,N7452,14.21
65,17,N310,24.87
66,18,N3295,2.0
67,18,N4997,5.86
68,18,N7452,14.3
69,18,N310,24.9
70,19,N3295,2.0
71,19,N4997,6.18
72,19,N7452,14.19
73,19,N310,25.06
74,20,N3295,2.0
75,20,N4997,6.09
76,20,N7452,14.07
77,20,N310,25.04
78,21,N3295,2.0
79,21,N4997,6.05
80,21,N7452,14.37
81,21,N310,25.03
82,22,N3295,2.0
83,22,N4997,6.27
84,22,N7452,14.6
85,22,N310,24.98
86,23,N3295,2.0
87,23,N4997,5.89
88,23,N7452,14.41
89,23,N310,24.95
90,24,N3295,2.0
91,24,N4997,5.69
92,24,N7452,14.16
93,24,N310,24.94
94,25,N3295,2.0
95,25,N4997,5.6
96,25,N7452,13.66
97,25,N310,25.03
98,26,N3295,2.0
99,26,N4997,6.05
100,26,N7452,14.07
101,26,N310,25.13
102,27,N3295,2.0
103,27,N4997,5.77
104,27,N7452,14.15
105,27,N310,25.08
106,28,N3295,2.0
107,28,N4997,5.64
108,28,N7452,13.89
109,28,N310,25.0
110,29,N3295,2.0
111,29,N4997,5.57
112,29,N7452,13.7
113,29,N310,25.01
114,30,N3295,2.0
115,30,N4997,5.78
116,30,N7452,13.98
117,30,N310,24.92
118,31,N3295,2.0
119,31,N4997,6.14
120,31,N7452,14.1
121,31,N310,24.92
122,32,N3295,2.0
123,32,N4997,6.32
124,32,N7452,14.51
125,32,N310,25.02
126,33,N3295,2.0
127,33,N4997,6.41
128,33,N7452,14.58
129,33,N310,24.92
130,34,N3295,2.0
131,34,N4997,6.21
132,34,N7452,14.56
133,34,N310,25.12
134,35,N3295,2.0
135,35,N4997,6.1
136,35,N7452,14.46
137,35,N310,25.07
138,36,N3295,2.0
139,36,N4997,6.3
140,36,N7452,14.37
141,36,N310,25.15
142,37,N3295,2.0
143,37,N4997,5.9
144,37,N7452,14.01
145,37,N310,25.09
146,38,N3295,2.0
147,38,N4997,5.7
148,38,N7452,13.66
149,38,N310,25.16
150,39,N3295,2.0
151,39,N4997,6.1
152,39,N7452,14.01
153,39,N310,25.24
154,40,N3295,2.0
155,40,N4997,5.8
156,40,N7452,14.05
157,40,N310,25.23
158,41,N3295,2.0
159,41,N4997,5.65
160,41,N7452,13.74
161,41,N310,25.23
162,42,N3295,2.0
163,42,N4997,5.58
164,42,N7452,13.63
165,42,N310,25.13
166,43,N3295,2.0
167,43,N4997,6.04
168,43,N7452,14.15
169,43,N310,24.98
170,44,N3295,2.0
171,44,N4997,6.02
172,44,N7452,13.99
173,44,N310,25.05
174,45,N3295,2.0
175,45,N4997,5.76
176,45,N7452,14.1
177,45,N310,24.94
178,46,N3295,2.0
179,46,N4997,6.13
180,46,N7452,14.05
181,46,N310,24.88
182,47,N3295,2.0
183,47,N4997,6.06
184,47,N7452,13.98
185,47,N310,25.0
186,48,N3295,2.0
187,48,N4997,5.78
188,48,N7452,14.12
189,48,N310,25.01
190,49,N3295,2.0
191,49,N4997,6.14
192,49,N7452,14.37
193,49,N310,25.02
194,50,N3295,2.0
195,50,N4997,6.32
196,50,N7452,14.74
197,50,N310,24.92
198,51,N3295,2.0
199,51,N4997,6.41
200,51,N7452,14.7
201,51,N310,24.97
202,52,N3295,2.0
203,52,N4997,6.21
204,52,N7452,14.71
205,52,N310,25.05
206,53,N3295,2.0
207,53,N4997,5.85
208,53,N7452,14.54
209,53,N310,25.14
210,54,N3295,2.0
211,54,N4997,5.68
212,54,N7452,14.01
213,54,N310,24.98
214,55,N3295,2.0
215,55,N4997,5.84
216,55,N7452,13.88
217,55,N310,24.95
218,56,N3295,2.0
219,56,N4997,5.67
220,56,N7452,13.77
221,56,N310,24.99
222,57,N3295,2.0
223,57,N4997,5.58
224,57,N7452,13.45
225,57,N310,24.91
226,58,N3295,2.0
227,58,N4997,5.79
228,58,N7452,13.86
229,58,N310,25.07
230,59,N3295,2.0
231,59,N4997,5.65
232,59,N7452,13.85
233,59,N310,25.15
234,60,N3295,2.0
235,60,N4997,5.82
236,60,N7452,13.98
237,60,N310,25.19
238,61,N3295,2.0
239,61,N4997,6.16
240,61,N7452,14.12
241,61,N310,25.11
242,62,N3295,2.0
243,62,N4997,6.08
244,62,N7452,14.12
245,62,N310,25.12
246,63,N2253,3.12
247,63,N2033,11.25
248,63,N310,22.78
249,64,N5804,2.0
250,64,N2253,4.19
251,64,N2033,10.86
252,64,N310,21.17
253,65,N5804,2.0
254,65,N2253,4.72
255,65,N2033,11.03
256,65,N310,20.76
257,66,N5804,2.0
258,66,N2253,4.98
259,66,N2033,11.5
260,66,N310,20.78
261,67,N5804,2.0
262,67,N2253,5.12
263,67,N2033,11.68
264,67,N310,20.96
265,68,N5804,2.0
266,68,N2253,5.18
267,68,N2033,11.91
268,68,N310,21.25
269,69,N5804,2.0
270,69,N2253,5.22
271,69,N2033,11.97
272,69,N310,21.55
273,70,N5804,2.0
274,70,N2253,5.23
275,70,N2033,12.1
276,70,N310,21.71
277,71,N5804,2.0
278,71,N2253,5.24
279,71,N2033,12.17
280,71,N310,21.9
281,72,N5804,2.0
282,72,N2253,5.25
283,72,N2033,12.04
284,72,N310,21.99
285,73,N5804,2.0
286,73,N2253,5.25
287,73,N2033,12.14
288,73,N310,21.97
289,74,N5804,2.0
290,74,N2253,5.25
291,74,N2033,12.11
292,74,N310,22.09
293,75,N5804,2.0
294,75,N2253,5.25
295,75,N2033,12.18
296,75,N310,22.16
297,76,N5804,2.0
298,76,N2253,5.25
299,76,N2033,12.05
300,76,N310,22.12
301,77,N5804,2.0
302,77,N2253,5.25
303,77,N2033,12.15
304,77,N310,22.09
305,78,N5804,2.0
306,78,N2253,5.25
307,78,N2033,12.28
308,78,N310,22.15
309,79,N5804,2.0
310,79,N2253,5.25
311,79,N2033,12.18
312,79,N310,22.29
313,80,N5804,2.0
314,80,N2253,5.25
315,80,N2033,12.13
316,80,N310,22.22
317,81,N5804,2.0
318,81,N2253,5.25
319,81,N2033,12.19
320,81,N310,22.23
321,82,N5804,2.0
322,82,N2253,5.25
323,82,N2033,12.14
324,82,N310,22.29
325,83,N5804,2.0
326,83,N2253,5.25
327,83,N2033,12.03
328,83,N310,22.12
329,84,N5804,2.0
330,84,N2253,5.25
331,84,N2033,12.14
332,84,N310,22.18
333,85,N5804,2.0
334,85,N2253,5.25
335,85,N2033,12.03
336,85,N310,22.12
337,86,N5804,2.0
338,86,N2253,5.25
339,86,N2033,12.06
340,86,N310,22.11
341,87,N5804,2.0
342,87,N2253,5.25
343,87,N2033,12.24
344,87,N310,22.22
345,88,N5804,2.0
346,88,N2253,5.25
347,88,N2033,12.08
348,88,N310,22.13
349,89,N5804,2.0
350,89,N2253,5.25
351,89,N2033,12.08
352,89,N310,22.04
353,90,N5804,2.0
354,90,N2253,5.25
355,90,N2033,12.16
356,90,N310,22.07
357,91,N5804,2.0
358,91,N2253,5.25
359,91,N2033,12.29
360,91,N310,22.34
361,92,N5804,2.0
362,92,N2253,5.25
363,92,N2033,12.27
364,92,N310,22.32
365,93,N5804,2.0
366,93,N2253,5.25
367,93,N2033,12.34
368,93,N310,22.32
369,94,N5804,2.0
370,94,N2253,5.25
371,94,N2033,12.13
372,94,N310,22.18
373,95,N5804,2.0
374,95,N2253,5.25
375,95,N2033,12.11
376,95,N310,22.18
377,96,N5804,2.0
378,96,N2253,5.25
379,96,N2033,12.26
380,96,N310,22.28
381,97,N5804,2.0
382,97,N2253,5.25
383,97,N2033,12.34
384,97,N310,22.44
385,98,N5804,2.0
386,98,N2253,5.25
387,98,N2033,12.29
388,98,N310,22.44
389,99,N5804,2.0
390,99,N2253,5.25
391,99,N2033,12.27
392,99,N310,22.46
