,iter,node,value
0,0,N3128,1.58
1,0,N664,1.53
2,1,N9574,4.63
3,1,N3128,5.74
4,1,N664,6.29
5,2,N793,3.09
6,2,N9574,6.8
7,2,N3128,9.93
8,2,N664,12.66
9,3,N3852,1.58
10,3,N9574,6.44
11,3,N3128,11.66
12,3,N664,17.52
13,4,N8368,4.56
14,4,N3852,5.57
15,4,N9574,10.02
16,4,N3128,15.9
17,4,N664,24.04
18,5,N10000,4.56
19,5,N793,6.78
20,5,N9574,11.88
21,5,N3128,19.85
22,5,N664,31.07
23,6,N8103,4.62
24,6,N8368,8.0
25,6,N3852,10.71
26,6,N9574,17.57
27,6,N3128,27.24
28,6,N664,41.66
29,7,N3942,4.58
30,7,N793,8.58
31,7,N9574,20.34
32,7,N3128,33.55
33,7,N664,52.98
34,8,N4191,9.25
35,8,N10000,12.11
36,8,N793,16.39
37,8,N9574,21.73
38,8,N3128,38.04
39,8,N664,62.97
40,9,N1038,3.25
41,9,N8103,6.5
42,9,N8368,11.39
43,9,N3852,16.41
44,9,N9574,27.84
45,9,N3128,46.05
46,9,N664,75.64
47,10,N8292,9.25
48,10,N3942,11.67
49,10,N793,20.25
50,10,N9574,30.77
51,10,N3128,52.88
52,10,N664,88.51
53,11,N1764,2.0
54,11,N8103,7.31
55,11,N8368,13.81
56,11,N3852,21.48
57,11,N9574,37.07
58,11,N3128,62.21
59,11,N664,103.89
60,12,N3815,3.25
61,12,N3942,10.29
62,12,N793,22.23
63,12,N9574,40.22
64,12,N3128,69.91
65,12,N664,118.95
66,13,N7275,1.75
67,13,N3942,9.6
68,13,N793,23.21
69,13,N9574,41.73
70,13,N3128,75.15
71,13,N664,131.53
72,14,N2887,10.75
73,14,N7275,9.56
74,14,N3942,9.18
75,14,N793,23.66
76,14,N9574,42.52
77,14,N3128,78.57
78,14,N664,141.06
79,15,N6576,12.5
80,15,N3815,12.12
81,15,N3942,16.28
82,15,N793,23.93
83,15,N9574,42.98
84,15,N3128,80.69
85,15,N664,147.87
86,16,N5474,4.75
87,16,N7275,13.47
88,16,N3942,19.83
89,16,N793,24.07
90,16,N9574,43.11
91,16,N3128,81.9
92,16,N664,152.42
93,17,N5274,8.0
94,17,N5474,8.12
95,17,N7275,15.55
96,17,N3942,21.77
97,17,N793,24.13
98,17,N9574,43.21
99,17,N3128,82.62
100,17,N664,155.43
101,18,N5274,8.0
102,18,N5474,9.81
103,18,N7275,16.59
104,18,N3942,22.74
105,18,N793,24.17
106,18,N9574,43.29
107,18,N3128,83.03
108,18,N664,157.31
109,19,N5274,8.0
110,19,N5474,10.91
111,19,N7275,17.11
112,19,N3942,23.14
113,19,N793,24.14
114,19,N9574,43.23
115,19,N3128,83.16
116,19,N664,158.37
117,20,N5274,8.0
118,20,N5474,11.45
119,20,N7275,17.37
120,20,N3942,23.42
121,20,N793,24.13
122,20,N9574,43.3
123,20,N3128,83.27
124,20,N664,158.98
125,21,N5274,8.0
126,21,N5474,11.73
127,21,N7275,17.5
128,21,N3942,23.48
129,21,N793,24.12
130,21,N9574,43.34
131,21,N3128,83.38
132,21,N664,159.42
133,22,N5274,8.0
134,22,N5474,11.86
135,22,N7275,17.44
136,22,N3942,23.51
137,22,N793,24.16
138,22,N9574,43.39
139,22,N3128,83.48
140,22,N664,159.73
141,23,N5274,8.0
142,23,N5474,11.68
143,23,N7275,17.53
144,23,N3942,23.61
145,23,N793,24.14
146,23,N9574,43.38
147,23,N3128,83.5
148,23,N664,159.93
149,24,N5274,8.0
150,24,N5474,11.59
151,24,N7275,17.58
152,24,N3942,23.66
153,24,N793,24.12
154,24,N9574,43.41
155,24,N3128,83.61
156,24,N664,160.12
157,25,N5274,8.0
158,25,N5474,11.55
159,25,N7275,17.6
160,25,N3942,23.6
161,25,N793,24.16
162,25,N9574,43.29
163,25,N3128,83.51
164,25,N664,160.13
165,26,N5274,8.0
166,26,N5474,11.77
167,26,N7275,17.61
168,26,N3942,23.57
169,26,N793,24.18
170,26,N9574,43.23
171,26,N3128,83.37
172,26,N664,159.98
173,27,N5274,8.0
174,27,N5474,11.89
175,27,N7275,17.49
176,27,N3942,23.47
177,27,N793,24.15
178,27,N9574,43.27
179,27,N3128,83.42
180,27,N664,159.93
181,28,N5274,8.0
182,28,N5474,11.94
183,28,N7275,17.43
184,28,N3942,23.59
185,28,N793,24.13
186,28,N9574,43.29
187,28,N3128,83.46
188,28,N664,159.99
189,29,N5274,8.0
190,29,N5474,11.72
191,29,N7275,17.53
192,29,N3942,23.57
193,29,N793,24.17
194,29,N9574,43.3
195,29,N3128,83.46
196,29,N664,159.99
197,30,N5274,8.0
198,30,N5474,11.86
199,30,N7275,17.58
200,30,N3942,23.55
201,30,N793,24.18
202,30,N9574,43.37
203,30,N3128,83.5
204,30,N664,160.06
205,31,N5274,8.0
206,31,N5474,11.93
207,31,N7275,17.48
208,31,N3942,23.46
209,31,N793,24.19
210,31,N9574,43.27
211,31,N3128,83.43
212,31,N664,160.01
213,32,N44,3.25
214,32,N4191,10.31
215,32,N10000,16.78
216,32,N793,28.39
217,32,N9574,43.32
218,32,N3128,83.45
219,32,N664,160.01
220,33,N5274,8.0
221,33,N5474,11.72
222,33,N7275,17.43
223,33,N3942,23.5
224,33,N793,30.5
225,33,N9574,43.35
226,33,N3128,83.5
227,33,N664,160.05
228,34,N5274,8.0
229,34,N5474,11.61
230,34,N7275,17.4
231,34,N3942,23.52
232,34,N793,31.55
233,34,N9574,43.29
234,34,N3128,83.43
235,34,N664,160.02
236,35,N5274,8.0
237,35,N5474,11.55
238,35,N7275,17.39
239,35,N3942,23.53
240,35,N793,32.12
241,35,N9574,43.27
242,35,N3128,83.39
243,35,N664,159.93
244,36,N5274,8.0
245,36,N5474,11.53
246,36,N7275,17.51
247,36,N3942,23.62
248,36,N793,32.36
249,36,N9574,43.32
250,36,N3128,83.47
251,36,N664,159.98
252,37,N5274,8.0
253,37,N5474,11.76
254,37,N7275,17.44
255,37,N3942,23.58
256,37,N793,32.48
257,37,N9574,43.38
258,37,N3128,83.57
259,37,N664,160.1
260,38,N5274,8.0
261,38,N5474,11.63
262,38,N7275,17.41
263,38,N3942,23.56
264,38,N793,32.58
265,38,N9574,43.27
266,38,N3128,83.47
267,38,N664,160.08
268,39,N5274,8.0
269,39,N5474,11.82
270,39,N7275,17.39
271,39,N3942,23.47
272,39,N793,32.59
273,39,N9574,43.36
274,39,N3128,83.5
275,39,N664,160.08
276,40,N5274,8.0
277,40,N5474,11.66
278,40,N7275,17.38
279,40,N3942,23.42
280,40,N793,32.59
281,40,N9574,43.36
282,40,N3128,83.55
283,40,N664,160.13
284,41,N5274,8.0
285,41,N5474,11.83
286,41,N7275,17.38
287,41,N3942,23.48
288,41,N793,32.59
289,41,N9574,43.33
290,41,N3128,83.57
291,41,N664,160.19
292,42,N5274,8.0
293,42,N5474,11.66
294,42,N7275,17.5
295,42,N3942,23.43
296,42,N793,32.64
297,42,N9574,43.25
298,42,N3128,83.42
299,42,N664,160.08
300,43,N228,5.0
301,43,N3815,11.06
302,43,N3942,22.52
303,43,N793,32.66
304,43,N9574,43.28
305,43,N3128,83.45
306,43,N664,160.06
307,44,N1072,7.0
308,44,N228,8.0
309,44,N3815,12.66
310,44,N3942,23.47
311,44,N793,32.63
312,44,N9574,43.23
313,44,N3128,83.36
314,44,N664,159.92
315,45,N1072,7.0
316,45,N228,9.25
317,45,N3815,14.52
318,45,N3942,25.5
319,45,N793,32.61
320,45,N9574,43.23
321,45,N3128,83.38
322,45,N664,159.91
323,46,N1072,7.0
324,46,N228,9.88
325,46,N3815,15.79
326,46,N3942,27.66
327,46,N793,32.6
328,46,N9574,43.27
329,46,N3128,83.39
330,46,N664,159.87
331,47,N1072,7.0
332,47,N228,10.19
333,47,N3815,16.66
334,47,N3942,29.3
335,47,N793,32.6
336,47,N9574,43.32
337,47,N3128,83.4
338,47,N664,159.86
339,48,N1072,7.0
340,48,N228,10.34
341,48,N3815,17.21
342,48,N3942,30.58
343,48,N793,32.6
344,48,N9574,43.28
345,48,N3128,83.39
346,48,N664,159.87
347,49,N1072,7.0
348,49,N228,10.42
349,49,N3815,17.55
350,49,N3942,31.58
351,49,N793,32.6
352,49,N9574,43.36
353,49,N3128,83.46
354,49,N664,159.92
355,50,N1072,7.0
356,50,N228,10.46
357,50,N3815,17.87
358,50,N3942,32.43
359,50,N793,32.64
360,50,N9574,43.33
361,50,N3128,83.45
362,50,N664,159.93
363,51,N1072,7.0
364,51,N228,10.73
365,51,N3815,18.23
366,51,N3942,33.08
367,51,N793,32.66
368,51,N9574,43.25
369,51,N3128,83.39
370,51,N664,159.9
371,52,N3271,12.25
372,52,N8292,17.06
373,52,N3942,33.32
374,52,N793,32.63
375,52,N9574,43.31
376,52,N3128,83.44
377,52,N664,159.95
378,53,N1072,7.0
379,53,N228,10.87
380,53,N3815,18.39
381,53,N3942,33.65
382,53,N793,32.66
383,53,N9574,43.27
384,53,N3128,83.41
385,53,N664,159.95
386,54,N1072,7.0
387,54,N228,10.93
388,54,N3815,18.64
389,54,N3942,33.95
390,54,N793,32.67
391,54,N9574,43.36
392,54,N3128,83.47
393,54,N664,159.98
394,55,N1072,7.0
395,55,N228,10.72
396,55,N3815,18.61
397,55,N3942,34.15
398,55,N793,32.68
399,55,N9574,43.4
400,55,N3128,83.59
401,55,N664,160.14
402,56,N1072,7.0
403,56,N228,10.86
404,56,N3815,18.57
405,56,N3942,34.22
406,56,N793,32.64
407,56,N9574,43.35
408,56,N3128,83.6
409,56,N664,160.19
410,57,N1072,7.0
411,57,N228,10.68
412,57,N3815,18.55
413,57,N3942,34.15
414,57,N793,32.66
415,57,N9574,43.36
416,57,N3128,83.59
417,57,N664,160.23
418,58,N1072,7.0
419,58,N228,10.59
420,58,N3815,18.47
421,58,N3942,34.21
422,58,N793,32.63
423,58,N9574,43.33
424,58,N3128,83.51
425,58,N664,160.17
426,59,N1072,7.0
427,59,N228,10.79
428,59,N3815,18.45
429,59,N3942,34.07
430,59,N793,32.66
431,59,N9574,43.29
432,59,N3128,83.48
433,59,N664,160.08
434,60,N7032,1.75
435,60,N4191,10.72
436,60,N10000,19.53
437,60,N793,35.13
438,60,N9574,43.33
439,60,N3128,83.48
440,60,N664,160.06
441,61,N1072,7.0
442,61,N228,10.65
443,61,N3815,18.46
444,61,N3942,34.09
445,61,N793,36.41
446,61,N9574,43.28
447,61,N3128,83.48
448,61,N664,160.03
449,62,N1072,7.0
450,62,N228,10.82
451,62,N3815,18.47
452,62,N3942,34.19
453,62,N793,37.05
454,62,N9574,43.26
455,62,N3128,83.39
456,62,N664,159.93
457,63,N1072,7.0
458,63,N228,10.91
459,63,N3815,18.55
460,63,N3942,34.13
461,63,N793,37.37
462,63,N9574,43.25
463,63,N3128,83.41
464,63,N664,159.9
465,64,N1072,7.0
466,64,N228,10.96
467,64,N3815,18.61
468,64,N3942,34.16
469,64,N793,37.53
470,64,N9574,43.24
471,64,N3128,83.36
472,64,N664,159.86
473,65,N1072,7.0
474,65,N228,10.73
475,65,N3815,18.48
476,65,N3942,34.06
477,65,N793,37.61
478,65,N9574,43.24
479,65,N3128,83.33
480,65,N664,159.81
481,66,N7639,3.0
482,66,N1764,3.25
483,66,N8103,7.72
484,66,N8368,15.32
485,66,N3852,25.42
486,66,N9574,46.95
487,66,N3128,86.87
488,66,N664,163.17
489,67,N1072,7.0
490,67,N228,10.86
491,67,N3815,18.51
492,67,N3942,34.12
493,67,N793,37.65
494,67,N9574,48.8
495,67,N3128,90.37
496,67,N664,168.21
497,68,N1072,7.0
498,68,N228,10.68
499,68,N3815,18.39
500,68,N3942,34.14
501,68,N793,37.62
502,68,N9574,49.69
503,68,N3128,92.94
504,68,N664,173.18
505,69,N1072,7.0
506,69,N228,10.59
507,69,N3815,18.39
508,69,N3942,33.98
509,69,N793,37.65
510,69,N9574,50.17
511,69,N3128,94.69
512,69,N664,177.33
513,70,N5274,8.0
514,70,N5474,11.83
515,70,N7275,17.44
516,70,N3942,33.98
517,70,N793,37.67
518,70,N9574,50.48
519,70,N3128,95.88
520,70,N664,180.59
521,71,N1072,7.0
522,71,N228,10.8
523,71,N3815,18.42
524,71,N3942,33.92
525,71,N793,37.68
526,71,N9574,50.5
527,71,N3128,96.54
528,71,N664,182.81
529,72,N5274,8.0
530,72,N5474,11.67
531,72,N7275,17.53
532,72,N3942,33.97
533,72,N793,37.64
534,72,N9574,50.54
535,72,N3128,96.86
536,72,N664,184.27
537,73,N1072,7.0
538,73,N228,10.65
539,73,N3815,18.44
540,73,N3942,34.11
541,73,N793,37.62
542,73,N9574,50.53
543,73,N3128,97.01
544,73,N664,185.13
545,74,N5274,8.0
546,74,N5474,11.58
547,74,N7275,17.58
548,74,N3942,34.17
549,74,N793,37.61
550,74,N9574,50.66
551,74,N3128,97.26
552,74,N664,185.77
553,75,N1072,7.0
554,75,N228,10.57
555,75,N3815,18.4
556,75,N3942,34.01
557,75,N793,37.65
558,75,N9574,50.62
559,75,N3128,97.3
560,75,N664,186.17
561,76,N5165,3.0
562,76,N7032,3.12
563,76,N4191,10.92
564,76,N10000,21.08
565,76,N793,39.04
566,76,N9574,50.57
567,76,N3128,97.27
568,76,N664,186.34
569,77,N9297,3.0
570,77,N44,4.62
571,77,N4191,12.18
572,77,N10000,22.98
573,77,N793,41.5
574,77,N9574,50.58
575,77,N3128,97.28
576,77,N664,186.4
577,78,N5165,3.0
578,78,N7032,4.06
579,78,N4191,12.68
580,78,N10000,24.38
581,78,N793,43.95
582,78,N9574,50.55
583,78,N3128,97.24
584,78,N664,186.41
585,79,N9297,3.0
586,79,N44,5.31
587,79,N4191,13.7
588,79,N10000,25.92
589,79,N793,46.59
590,79,N9574,50.64
591,79,N3128,97.32
592,79,N664,186.49
593,80,N1072,7.0
594,80,N228,10.79
595,80,N3815,18.54
596,80,N3942,34.04
597,80,N793,47.95
598,80,N9574,50.61
599,80,N3128,97.37
600,80,N664,186.58
601,81,N5274,8.0
602,81,N5474,11.79
603,81,N7275,17.48
604,81,N3942,34.14
605,81,N793,48.59
606,81,N9574,50.57
607,81,N3128,97.27
608,81,N664,186.53
609,82,N5274,8.0
610,82,N5474,11.65
611,82,N7275,17.55
612,82,N3942,34.1
613,82,N793,48.9
614,82,N9574,50.61
615,82,N3128,97.34
616,82,N664,186.59
617,83,N1072,7.0
618,83,N228,10.89
619,83,N3815,18.69
620,83,N3942,34.21
621,83,N793,49.06
622,83,N9574,50.63
623,83,N3128,97.37
624,83,N664,186.65
625,84,N5274,8.0
626,84,N5474,11.57
627,84,N7275,17.59
628,84,N3942,34.35
629,84,N793,49.19
630,84,N9574,50.58
631,84,N3128,97.36
632,84,N664,186.65
633,85,N5165,3.0
634,85,N7032,4.28
635,85,N4191,14.08
636,85,N10000,27.09
637,85,N793,50.27
638,85,N9574,50.55
639,85,N3128,97.25
640,85,N664,186.54
641,86,N1072,7.0
642,86,N228,10.95
643,86,N3815,18.81
644,86,N3942,34.51
645,86,N793,50.81
646,86,N9574,50.63
647,86,N3128,97.3
648,86,N664,186.52
649,87,N5165,3.0
650,87,N7032,4.39
651,87,N4191,14.28
652,87,N10000,27.85
653,87,N793,51.77
654,87,N9574,50.71
655,87,N3128,97.38
656,87,N664,186.58
657,88,N9297,3.0
658,88,N44,5.66
659,88,N4191,14.63
660,88,N10000,28.54
661,88,N793,52.92
662,88,N9574,50.68
663,88,N3128,97.41
664,88,N664,186.66
665,89,N5165,3.0
666,89,N7032,4.7
667,89,N4191,14.68
668,89,N10000,28.93
669,89,N793,53.81
670,89,N9574,50.7
671,89,N3128,97.5
672,89,N664,186.81
673,90,N9297,3.0
674,90,N44,5.83
675,90,N4191,15.09
676,90,N10000,29.43
677,90,N793,54.71
678,90,N9574,50.74
679,90,N3128,97.53
680,90,N664,186.89
681,91,N5319,3.0
682,91,N1038,4.62
683,91,N8103,9.08
684,91,N8368,17.28
685,91,N3852,29.24
686,91,N9574,54.27
687,91,N3128,100.87
688,91,N664,190.15
689,92,N5165,3.0
690,92,N7032,4.85
691,92,N4191,15.29
692,92,N10000,29.86
693,92,N793,55.59
694,92,N9574,55.99
695,92,N3128,104.23
696,92,N664,194.98
697,93,N9297,3.0
698,93,N44,5.91
699,93,N4191,15.33
700,93,N10000,30.11
701,93,N793,56.26
702,93,N9574,56.92
703,93,N3128,106.79
704,93,N664,199.85
705,94,N5165,3.0
706,94,N7032,4.67
707,94,N4191,15.48
708,94,N10000,30.37
709,94,N793,56.79
710,94,N9574,57.36
711,94,N3128,108.46
712,94,N664,203.89
713,95,N9297,3.0
714,95,N44,5.71
715,95,N4191,15.27
716,95,N10000,30.31
717,95,N793,56.99
718,95,N9574,57.5
719,95,N3128,109.43
720,95,N664,206.84
721,96,N5165,3.0
722,96,N7032,4.84
723,96,N4191,15.04
724,96,N10000,30.08
725,96,N793,56.89
726,96,N9574,57.58
727,96,N3128,110.04
728,96,N664,208.88
729,97,N9297,3.0
730,97,N44,5.85
731,97,N4191,15.16
732,97,N10000,30.13
733,97,N793,56.92
734,97,N9574,57.72
735,97,N3128,110.43
736,97,N664,210.28
737,98,N9297,3.0
738,98,N44,5.68
739,98,N4191,15.09
740,98,N10000,30.03
741,98,N793,56.85
742,98,N9574,57.68
743,98,N3128,110.61
744,98,N664,211.17
745,99,N5165,3.0
746,99,N7032,4.92
747,99,N4191,14.93
748,99,N10000,29.89
749,99,N793,56.69
750,99,N9574,57.77
751,99,N3128,110.79
752,99,N664,211.76
