,iter,node,value
0,0,N1190,3.11
1,0,N3246,3.04
2,1,N2143,4.65
3,1,N1190,6.94
4,1,N3246,8.19
5,2,N1817,4.58
6,2,N2143,8.1
7,2,N1190,12.14
8,2,N3246,15.79
9,3,N1128,3.08
10,3,N2143,8.38
11,3,N1190,15.02
12,3,N3246,22.29
13,4,N9763,7.75
14,4,N1128,9.17
15,4,N2143,14.09
16,4,N1190,21.74
17,4,N3246,32.08
18,5,N2770,8.0
19,5,N1817,10.62
20,5,N2143,16.94
21,5,N1190,27.82
22,5,N3246,42.74
23,6,N8005,4.6
24,6,N1128,9.67
25,6,N2143,18.77
26,6,N1190,32.37
27,6,N3246,52.44
28,7,N9978,13.0
29,7,N8005,14.3
30,7,N1128,17.83
31,7,N2143,27.04
32,7,N1190,42.36
33,7,N3246,66.82
34,8,N8593,4.6
35,8,N1817,13.65
36,8,N2143,31.17
37,8,N1190,51.19
38,8,N3246,82.53
39,9,N6576,13.5
40,9,N8593,14.7
41,9,N1817,15.16
42,9,N2143,33.23
43,9,N1190,57.67
44,9,N3246,96.64
45,10,N950,12.5
46,10,N2770,13.0
47,10,N1817,20.08
48,10,N2143,34.27
49,10,N1190,61.83
50,10,N3246,107.68
51,11,N2649,12.5
52,11,N9763,13.12
53,11,N1128,21.92
54,11,N2143,38.46
55,11,N1190,67.74
56,11,N3246,118.75
57,12,N1739,5.0
58,12,N2770,12.0
59,12,N1817,21.79
60,12,N2143,40.6
61,12,N1190,72.64
62,12,N3246,129.03
63,13,N7687,11.0
64,13,N1739,4.5
65,13,N2770,11.25
66,13,N1817,22.02
67,13,N2143,41.58
68,13,N1190,76.11
69,13,N3246,137.45
70,14,N7687,11.0
71,14,N1739,4.25
72,14,N2770,10.5
73,14,N1817,21.43
74,14,N2143,42.11
75,14,N1190,78.27
76,14,N3246,143.79
77,15,N7687,11.0
78,15,N1739,4.12
79,15,N2770,10.56
80,15,N1817,21.1
81,15,N2143,42.38
82,15,N1190,79.59
83,15,N3246,148.26
84,16,N7687,11.0
85,16,N1739,4.06
86,16,N2770,10.31
87,16,N1817,20.89
88,16,N2143,42.52
89,16,N1190,80.46
90,16,N3246,151.23
91,17,N7687,11.0
92,17,N1739,4.03
93,17,N2770,10.42
94,17,N1817,20.88
95,17,N2143,42.53
96,17,N1190,80.83
97,17,N3246,153.18
98,18,N7687,11.0
99,18,N1739,4.02
100,18,N2770,9.97
101,18,N1817,20.33
102,18,N2143,42.64
103,18,N1190,81.15
104,18,N3246,154.4
105,19,N7687,11.0
106,19,N1739,4.01
107,19,N2770,9.74
108,19,N1817,20.03
109,19,N2143,42.65
110,19,N1190,81.21
111,19,N3246,155.05
112,20,N7687,11.0
113,20,N1739,4.0
114,20,N2770,9.62
115,20,N1817,19.7
116,20,N2143,42.65
117,20,N1190,81.39
118,20,N3246,155.54
119,21,N7687,11.0
120,21,N1739,4.0
121,21,N2770,9.56
122,21,N1817,19.57
123,21,N2143,42.65
124,21,N1190,81.44
125,21,N3246,155.88
126,22,N7687,11.0
127,22,N1739,4.0
128,22,N2770,9.53
129,22,N1817,19.48
130,22,N2143,42.65
131,22,N1190,81.5
132,22,N3246,156.09
133,23,N7687,11.0
134,23,N1739,4.0
135,23,N2770,10.02
136,23,N1817,19.67
137,23,N2143,42.6
138,23,N1190,81.45
139,23,N3246,156.14
140,24,N7687,11.0
141,24,N1739,4.0
142,24,N2770,10.26
143,24,N1817,20.05
144,24,N2143,42.62
145,24,N1190,81.38
146,24,N3246,156.12
147,25,N7687,11.0
148,25,N1739,4.0
149,25,N2770,9.88
150,25,N1817,20.01
151,25,N2143,42.64
152,25,N1190,81.46
153,25,N3246,156.21
154,26,N7687,11.0
155,26,N1739,4.0
156,26,N2770,10.19
157,26,N1817,20.08
158,26,N2143,42.69
159,26,N1190,81.41
160,26,N3246,156.16
161,27,N7687,11.0
162,27,N1739,4.0
163,27,N2770,9.84
164,27,N1817,19.83
165,27,N2143,42.67
166,27,N1190,81.51
167,27,N3246,156.19
168,28,N7687,11.0
169,28,N1739,4.0
170,28,N2770,9.67
171,28,N1817,19.72
172,28,N2143,42.66
173,28,N1190,81.58
174,28,N3246,156.32
175,29,N7687,11.0
176,29,N1739,4.0
177,29,N2770,9.59
178,29,N1817,19.52
179,29,N2143,42.61
180,29,N1190,81.57
181,29,N3246,156.33
182,30,N7687,11.0
183,30,N1739,4.0
184,30,N2770,9.54
185,30,N1817,19.38
186,30,N2143,42.63
187,30,N1190,81.4
188,30,N3246,156.22
189,31,N7687,11.0
190,31,N1739,4.0
191,31,N2770,9.52
192,31,N1817,19.29
193,31,N2143,42.64
194,31,N1190,81.51
195,31,N3246,156.24
196,32,N7687,11.0
197,32,N1739,4.0
198,32,N2770,9.51
199,32,N1817,19.24
200,32,N2143,42.69
201,32,N1190,81.58
202,32,N3246,156.32
203,33,N7687,11.0
204,33,N1739,4.0
205,33,N2770,10.01
206,33,N1817,19.62
207,33,N2143,42.67
208,33,N1190,81.59
209,33,N3246,156.39
210,34,N7687,11.0
211,34,N1739,4.0
212,34,N2770,9.75
213,34,N1817,19.61
214,34,N2143,42.66
215,34,N1190,81.52
216,34,N3246,156.38
217,35,N7687,11.0
218,35,N1739,4.0
219,35,N2770,9.88
220,35,N1817,19.78
221,35,N2143,42.66
222,35,N1190,81.51
223,35,N3246,156.32
224,36,N7687,11.0
225,36,N1739,4.0
226,36,N2770,9.94
227,36,N1817,19.92
228,36,N2143,42.65
229,36,N1190,81.54
230,36,N3246,156.39
231,37,N7687,11.0
232,37,N1739,4.0
233,37,N2770,9.97
234,37,N1817,20.02
235,37,N2143,42.65
236,37,N1190,81.52
237,37,N3246,156.36
238,38,N7687,11.0
239,38,N1739,4.0
240,38,N2770,9.73
241,38,N1817,19.79
242,38,N2143,42.65
243,38,N1190,81.54
244,38,N3246,156.34
245,39,N7687,11.0
246,39,N1739,4.0
247,39,N2770,10.12
248,39,N1817,19.99
249,39,N2143,42.7
250,39,N1190,81.6
251,39,N3246,156.41
252,40,N7687,11.0
253,40,N1739,4.0
254,40,N2770,10.06
255,40,N1817,19.96
256,40,N2143,42.68
257,40,N1190,81.57
258,40,N3246,156.44
259,41,N7687,11.0
260,41,N1739,4.0
261,41,N2770,10.28
262,41,N1817,20.3
263,41,N2143,42.66
264,41,N1190,81.61
265,41,N3246,156.5
266,42,N7687,11.0
267,42,N1739,4.0
268,42,N2770,9.89
269,42,N1817,19.97
270,42,N2143,42.66
271,42,N1190,81.56
272,42,N3246,156.51
273,43,N7687,11.0
274,43,N1739,4.0
275,43,N2770,10.19
276,43,N1817,20.23
277,43,N2143,42.65
278,43,N1190,81.49
279,43,N3246,156.46
280,44,N7687,11.0
281,44,N1739,4.0
282,44,N2770,10.1
283,44,N1817,20.11
284,44,N2143,42.6
285,44,N1190,81.52
286,44,N3246,156.37
287,45,N7687,11.0
288,45,N1739,4.0
289,45,N2770,9.8
290,45,N1817,19.97
291,45,N2143,42.68
292,45,N1190,81.49
293,45,N3246,156.33
294,46,N7687,11.0
295,46,N1739,4.0
296,46,N2770,9.9
297,46,N1817,19.82
298,46,N2143,42.66
299,46,N1190,81.54
300,46,N3246,156.33
301,47,N7687,11.0
302,47,N1739,4.0
303,47,N2770,9.7
304,47,N1817,19.74
305,47,N2143,42.66
306,47,N1190,81.59
307,47,N3246,156.44
308,48,N7687,11.0
309,48,N1739,4.0
310,48,N2770,9.6
311,48,N1817,19.62
312,48,N2143,42.6
313,48,N1190,81.54
314,48,N3246,156.36
315,49,N7687,11.0
316,49,N1739,4.0
317,49,N2770,9.55
318,49,N1817,19.52
319,49,N2143,42.63
320,49,N1190,81.53
321,49,N3246,156.42
322,50,N7687,11.0
323,50,N1739,4.0
324,50,N2770,9.52
325,50,N1817,19.36
326,50,N2143,42.69
327,50,N1190,81.44
328,50,N3246,156.32
329,51,N7687,11.0
330,51,N1739,4.0
331,51,N2770,9.76
332,51,N1817,19.48
333,51,N2143,42.62
334,51,N1190,81.37
335,51,N3246,156.22
336,52,N7687,11.0
337,52,N1739,4.0
338,52,N2770,9.63
339,52,N1817,19.43
340,52,N2143,42.68
341,52,N1190,81.5
342,52,N3246,156.31
343,53,N7687,11.0
344,53,N1739,4.0
345,53,N2770,9.57
346,53,N1817,19.27
347,53,N2143,42.67
348,53,N1190,81.4
349,53,N3246,156.19
350,54,N7687,11.0
351,54,N1739,4.0
352,54,N2770,9.53
353,54,N1817,19.16
354,54,N2143,42.66
355,54,N1190,81.53
356,54,N3246,156.31
357,55,N7687,11.0
358,55,N1739,4.0
359,55,N2770,10.02
360,55,N1817,19.6
361,55,N2143,42.65
362,55,N1190,81.41
363,55,N3246,156.19
364,56,N7687,11.0
365,56,N1739,4.0
366,56,N2770,10.26
367,56,N1817,19.93
368,56,N2143,42.65
369,56,N1190,81.49
370,56,N3246,156.19
371,57,N7687,11.0
372,57,N1739,4.0
373,57,N2770,10.38
374,57,N1817,20.2
375,57,N2143,42.65
376,57,N1190,81.46
377,57,N3246,156.24
378,58,N7687,11.0
379,58,N1739,4.0
380,58,N2770,10.19
381,58,N1817,20.26
382,58,N2143,42.65
383,58,N1190,81.47
384,58,N3246,156.26
385,59,N7687,11.0
386,59,N1739,4.0
387,59,N2770,10.09
388,59,N1817,20.29
389,59,N2143,42.65
390,59,N1190,81.48
391,59,N3246,156.22
392,60,N7687,11.0
393,60,N1739,4.0
394,60,N2770,9.8
395,60,N1817,20.06
396,60,N2143,42.7
397,60,N1190,81.57
398,60,N3246,156.3
399,61,N7687,11.0
400,61,N1739,4.0
401,61,N2770,9.65
402,61,N1817,19.74
403,61,N2143,42.68
404,61,N1190,81.56
405,61,N3246,156.37
406,62,N7687,11.0
407,62,N1739,4.0
408,62,N2770,9.82
409,62,N1817,19.64
410,62,N2143,42.71
411,62,N1190,81.51
412,62,N3246,156.38
413,63,N7687,11.0
414,63,N1739,4.0
415,63,N2770,10.16
416,63,N1817,19.87
417,63,N2143,42.68
418,63,N1190,81.5
419,63,N3246,156.35
420,64,N7687,11.0
421,64,N1739,4.0
422,64,N2770,10.08
423,64,N1817,20.09
424,64,N2143,42.67
425,64,N1190,81.47
426,64,N3246,156.36
427,65,N7687,11.0
428,65,N1739,4.0
429,65,N2770,9.79
430,65,N1817,19.79
431,65,N2143,42.71
432,65,N1190,81.57
433,65,N3246,156.44
434,66,N7687,11.0
435,66,N1739,4.0
436,66,N2770,9.65
437,66,N1817,19.6
438,66,N2143,42.68
439,66,N1190,81.49
440,66,N3246,156.37
441,67,N7687,11.0
442,67,N1739,4.0
443,67,N2770,9.57
444,67,N1817,19.53
445,67,N2143,42.66
446,67,N1190,81.5
447,67,N3246,156.38
448,68,N7687,11.0
449,68,N1739,4.0
450,68,N2770,9.54
451,68,N1817,19.29
452,68,N2143,42.66
453,68,N1190,81.51
454,68,N3246,156.4
455,69,N7687,11.0
456,69,N1739,4.0
457,69,N2770,9.52
458,69,N1817,19.16
459,69,N2143,42.7
460,69,N1190,81.58
461,69,N3246,156.49
462,70,N7687,11.0
463,70,N1739,4.0
464,70,N2770,9.76
465,70,N1817,19.3
466,70,N2143,42.63
467,70,N1190,81.41
468,70,N3246,156.35
469,71,N7687,11.0
470,71,N1739,4.0
471,71,N2770,9.63
472,71,N1817,19.26
473,71,N2143,42.64
474,71,N1190,81.37
475,71,N3246,156.26
476,72,N7687,11.0
477,72,N1739,4.0
478,72,N2770,10.06
479,72,N1817,19.6
480,72,N2143,42.64
481,72,N1190,81.46
482,72,N3246,156.3
483,73,N7687,11.0
484,73,N1739,4.0
485,73,N2770,10.28
486,73,N1817,19.95
487,73,N2143,42.65
488,73,N1190,81.51
489,73,N3246,156.33
490,74,N7687,11.0
491,74,N1739,4.0
492,74,N2770,9.89
493,74,N1817,19.97
494,74,N2143,42.7
495,74,N1190,81.48
496,74,N3246,156.26
497,75,N7687,11.0
498,75,N1739,4.0
499,75,N2770,9.7
500,75,N1817,19.65
501,75,N2143,42.67
502,75,N1190,81.4
503,75,N3246,156.18
504,76,N7687,11.0
505,76,N1739,4.0
506,76,N2770,9.85
507,76,N1817,19.61
508,76,N2143,42.66
509,76,N1190,81.49
510,76,N3246,156.19
511,77,N7687,11.0
512,77,N1739,4.0
513,77,N2770,9.92
514,77,N1817,19.66
515,77,N2143,42.66
516,77,N1190,81.53
517,77,N3246,156.25
518,78,N7687,11.0
519,78,N1739,4.0
520,78,N2770,9.71
521,78,N1817,19.51
522,78,N2143,42.65
523,78,N1190,81.59
524,78,N3246,156.34
525,79,N7687,11.0
526,79,N1739,4.0
527,79,N2770,9.61
528,79,N1817,19.42
529,79,N2143,42.7
530,79,N1190,81.62
531,79,N3246,156.47
532,80,N7687,11.0
533,80,N1739,4.0
534,80,N2770,9.55
535,80,N1817,19.34
536,80,N2143,42.63
537,80,N1190,81.61
538,80,N3246,156.49
539,81,N7687,11.0
540,81,N1739,4.0
541,81,N2770,9.78
542,81,N1817,19.4
543,81,N2143,42.59
544,81,N1190,81.46
545,81,N3246,156.39
546,82,N7687,11.0
547,82,N1739,4.0
548,82,N2770,10.14
549,82,N1817,19.82
550,82,N2143,42.67
551,82,N1190,81.53
552,82,N3246,156.35
553,83,N7687,11.0
554,83,N1739,4.0
555,83,N2770,10.07
556,83,N1817,19.97
557,83,N2143,42.66
558,83,N1190,81.52
559,83,N3246,156.4
560,84,N7687,11.0
561,84,N1739,4.0
562,84,N2770,10.03
563,84,N1817,20.09
564,84,N2143,42.6
565,84,N1190,81.43
566,84,N3246,156.26
567,85,N7687,11.0
568,85,N1739,4.0
569,85,N2770,9.77
570,85,N1817,19.94
571,85,N2143,42.63
572,85,N1190,81.51
573,85,N3246,156.35
574,86,N7687,11.0
575,86,N1739,4.0
576,86,N2770,9.63
577,86,N1817,19.58
578,86,N2143,42.69
579,86,N1190,81.5
580,86,N3246,156.32
581,87,N7687,11.0
582,87,N1739,4.0
583,87,N2770,9.57
584,87,N1817,19.35
585,87,N2143,42.67
586,87,N1190,81.55
587,87,N3246,156.42
588,88,N7687,11.0
589,88,N1739,4.0
590,88,N2770,9.53
591,88,N1817,19.28
592,88,N2143,42.66
593,88,N1190,81.53
594,88,N3246,156.43
595,89,N7687,11.0
596,89,N1739,4.0
597,89,N2770,9.77
598,89,N1817,19.53
599,89,N2143,42.65
600,89,N1190,81.52
601,89,N3246,156.42
602,90,N7687,11.0
603,90,N1739,4.0
604,90,N2770,10.13
605,90,N1817,19.79
606,90,N2143,42.65
607,90,N1190,81.54
608,90,N3246,156.46
609,91,N7687,11.0
610,91,N1739,4.0
611,91,N2770,10.07
612,91,N1817,19.87
613,91,N2143,42.7
614,91,N1190,81.53
615,91,N3246,156.42
616,92,N7687,11.0
617,92,N1739,4.0
618,92,N2770,10.28
619,92,N1817,20.17
620,92,N2143,42.68
621,92,N1190,81.5
622,92,N3246,156.36
623,93,N7687,11.0
624,93,N1739,4.0
625,93,N2770,10.39
626,93,N1817,20.41
627,93,N2143,42.71
628,93,N1190,81.45
629,93,N3246,156.23
630,94,N7687,11.0
631,94,N1739,4.0
632,94,N2770,9.95
633,94,N1817,20.08
634,94,N2143,42.68
635,94,N1190,81.39
636,94,N3246,156.16
637,95,N7687,11.0
638,95,N1739,4.0
639,95,N2770,9.72
640,95,N1817,19.89
641,95,N2143,42.72
642,95,N1190,81.5
643,95,N3246,156.25
644,96,N7687,11.0
645,96,N1739,4.0
646,96,N2770,9.61
647,96,N1817,19.62
648,96,N2143,42.73
649,96,N1190,81.61
650,96,N3246,156.38
651,97,N7687,11.0
652,97,N1739,4.0
653,97,N2770,9.81
654,97,N1817,19.65
655,97,N2143,42.64
656,97,N1190,81.47
657,97,N3246,156.37
658,98,N7687,11.0
659,98,N1739,4.0
660,98,N2770,9.65
661,98,N1817,19.45
662,98,N2143,42.65
663,98,N1190,81.44
664,98,N3246,156.23
665,99,N7687,11.0
666,99,N1739,4.0
667,99,N2770,9.58
668,99,N1817,19.29
669,99,N2143,42.7
670,99,N1190,81.48
671,99,N3246,156.22
